C:\Users\59013-57-03\Downloads\voiture-jpa\src\test\java\com\afpa\test\couleur\CouleurTest.java
C:\Users\59013-57-03\Downloads\voiture-jpa\src\test\java\com\afpa\test\couleur\EnergieTest.java
C:\Users\59013-57-03\Downloads\voiture-jpa\src\test\java\com\afpa\test\couleur\MarqueTest.java
C:\Users\59013-57-03\Downloads\voiture-jpa\src\test\java\com\afpa\test\couleur\ModeleTest.java
C:\Users\59013-57-03\Downloads\voiture-jpa\src\test\java\com\afpa\test\couleur\VoitureTest.java
