-------------------------------------------------------------------------------
Test set: com.afpa.app.AppTest
-------------------------------------------------------------------------------
Tests run: 5, Failures: 0, Errors: 0, Skipped: 0, Time elapsed: 0.116 s - in com.afpa.app.AppTest
